^C:\USERS\KC JOLLYMOUR\SOURCE\REPOS\CONSOLEAPPLICATION1\CONSOLEAPPLICATION1\PCH.CPP
C:\PROGRAM FILES (X86)\MICROSOFT VISUAL STUDIO\2017\COMMUNITY\VC\TOOLS\MSVC\14.15.26726\BIN\HOSTX86\X86\1033\CLUI.DLL
C:\WINDOWS\GLOBALIZATION\SORTING\SORTDEFAULT.NLS
C:\USERS\KC JOLLYMOUR\SOURCE\REPOS\CONSOLEAPPLICATION1\CONSOLEAPPLICATION1\PCH.H
