^C:\USERS\KC JOLLYMOUR\SOURCE\REPOS\CONSOLEAPPLICATION1\CONSOLEAPPLICATION1\PCH.CPP
C:\USERS\KC JOLLYMOUR\SOURCE\REPOS\CONSOLEAPPLICATION1\CONSOLEAPPLICATION1\DEBUG\EMUNATION.PCH
C:\USERS\KC JOLLYMOUR\SOURCE\REPOS\CONSOLEAPPLICATION1\CONSOLEAPPLICATION1\DEBUG\VC141.PDB
C:\USERS\KC JOLLYMOUR\SOURCE\REPOS\CONSOLEAPPLICATION1\CONSOLEAPPLICATION1\DEBUG\VC141.IDB
C:\USERS\KC JOLLYMOUR\SOURCE\REPOS\CONSOLEAPPLICATION1\CONSOLEAPPLICATION1\DEBUG\PCH.OBJ
