^C:\USERS\USER\SOURCE\REPOS\EMUNATION\CONSOLEAPPLICATION1\X64\DEBUG\MAIN.OBJ|C:\USERS\USER\SOURCE\REPOS\EMUNATION\CONSOLEAPPLICATION1\X64\DEBUG\PCH.OBJ
C:\USERS\USER\SOURCE\REPOS\EMUNATION\X64\DEBUG\EMUNATION.EXE
C:\USERS\USER\SOURCE\REPOS\EMUNATION\X64\DEBUG\EMUNATION.ILK
C:\USERS\USER\SOURCE\REPOS\EMUNATION\X64\DEBUG\EMUNATION.PDB
